module bitbucket.org/djordjeandrejevic/service

go 1.17

require (
	github.com/ardanlabs/conf v1.5.0
	github.com/dimfeld/httptreemux/v5 v5.4.0
	github.com/go-playground/locales v0.14.0
	github.com/go-playground/universal-translator v0.18.0
	github.com/google/uuid v1.3.0
	github.com/pkg/errors v0.9.1
	gopkg.in/go-playground/validator.v9 v9.31.0
)

require (
	github.com/leodido/go-urn v1.2.1 // indirect
	gopkg.in/go-playground/assert.v1 v1.2.1 // indirect
)
